Chapter 4 Results | Alcohol consumption preferences in Iowa
…
frist group by county

##  [1] "Invoice/Item Number"   "Date"                  "Store Number"         
##  [4] "Store Name"            "Address"               "City"                 
##  [7] "Zip Code"              "Store Location"        "County Number"        
## [10] "County"                "Category"              "Category Name"        
## [13] "Vendor Number"         "Vendor Name"           "Item Number"          
## [16] "Item Description"      "Pack"                  "Bottle Volume (ml)"   
## [19] "State Bottle Cost"     "State Bottle Retail"   "Bottles Sold"         
## [22] "Sale (Dollars)"        "Volume Sold (Liters)"  "Volume Sold (Gallons)"

select geo-related cols

## # A tibble: 90,584 × 7
##    County     `Category Name`             Bottle…¹  Pack Bottl…² Sale …³ Volum…⁴
##    <chr>      <chr>                          <dbl> <dbl>   <dbl>   <dbl>   <dbl>
##  1 BOONE      WHISKEY LIQUEUR                   50     1       1    45      0.01
##  2 CERRO GORD AMERICAN VODKAS                  750    12      12    60.1    2.37
##  3 BLACK HAWK 100% AGAVE TEQUILA               750    12      36   729      7.13
##  4 POLK       AMERICAN DRY GINS                375    12      24   240.     2.37
##  5 POLK       COCKTAILS /RTD                  1750     6       6    62.8    2.77
##  6 JACKSON    AMERICAN CORDIALS & LIQUEUR     1000    12      12    73.0    3.17
##  7 SCOTT      AMERICAN VODKAS                 1000    12      12   167.     3.17
##  8 CLARKE     AMERICAN VODKAS                 1750     6       6    58.5    2.77
##  9 POTTAWATTA WHISKEY LIQUEUR                   50    10       5    42.4    0.06
## 10 CERRO GORD IMPORTED VODKAS                  375    24       4    30.0    0.39
## # … with 90,574 more rows, and abbreviated variable names
## #   ¹​`Bottle Volume (ml)`, ²​`Bottles Sold`, ³​`Sale (Dollars)`,
## #   ⁴​`Volume Sold (Gallons)`

Note that the echo = FALSE parameter was added to the code chunk to prevent printing of the R code that generated the plot.

## # A tibble: 90 × 3
##    County     value type         
##    <chr>      <dbl> <chr>        
##  1 POLK       2232. bottle_in_100
##  2 LINN        948. bottle_in_100
##  3 SCOTT       775. bottle_in_100
##  4 BLACK HAWK  686. bottle_in_100
##  5 JOHNSON     544. bottle_in_100
##  6 WOODBURY    430. bottle_in_100
##  7 POTTAWATTA  390. bottle_in_100
##  8 STORY       249. bottle_in_100
##  9 CERRO GORD  239. bottle_in_100
## 10 DUBUQUE     239. bottle_in_100
## # … with 80 more rows

## # A tibble: 30 × 3
##    County      value type          
##    <chr>       <dbl> <chr>         
##  1 POLK       29469. dollars_in_100
##  2 LINN       11723. dollars_in_100
##  3 SCOTT       9433. dollars_in_100
##  4 BLACK HAWK  7908. dollars_in_100
##  5 JOHNSON     7779. dollars_in_100
##  6 WOODBURY    5274. dollars_in_100
##  7 POTTAWATTA  5160. dollars_in_100
##  8 STORY       3638. dollars_in_100
##  9 CERRO GORD  3133. dollars_in_100
## 10 DUBUQUE     3216. dollars_in_100
## # … with 20 more rows
…
check by alcohol category

## # A tibble: 3,337 × 5
## # Groups:   County [99]
##    County `Category Name`           bottle_sold dollar_100 volume
##    <chr>  <chr>                           <dbl>      <dbl>  <dbl>
##  1 ADAIR  CANADIAN WHISKIES                 390      41.9   93.2 
##  2 ADAIR  AMERICAN VODKAS                   312      27.0   70.9 
##  3 ADAIR  SPICED RUM                         91       7.92  16.1 
##  4 ADAIR  STRAIGHT BOURBON WHISKIES          76      10.1   21.5 
##  5 ADAIR  TENNESSEE WHISKIES                 64      14.5   12.8 
##  6 ADAIR  MIXTO TEQUILA                      62       7.99  11.1 
##  7 ADAIR  WHISKEY LIQUEUR                    58      10.8   11   
##  8 ADAIR  AMERICAN FLAVORED VODKA            54       5.08   9.85
##  9 ADAIR  IMPORTED VODKAS                    42       6.07   7.71
## 10 ADAIR  IRISH WHISKIES                     28       2.91   2.81
## # … with 3,327 more rows

## # A tibble: 30 × 2
##    County     count
##    <chr>      <dbl>
##  1 POLK       90211
##  2 LINN       41911
##  3 SCOTT      32585
##  4 JOHNSON    22852
##  5 BLACK HAWK 21946
##  6 WOODBURY   21121
##  7 POTTAWATTA 16070
##  8 CERRO GORD 11486
##  9 DUBUQUE     9847
## 10 STORY       9439
## # … with 20 more rows
…
## # A tibble: 30 × 4
##    County     bottle_sold_100 dollar_100 volume
##    <chr>                <dbl>      <dbl>  <dbl>
##  1 POLK                 2232.     29469. 45139.
##  2 LINN                  948.     11723. 19873.
##  3 SCOTT                 775.      9433. 15360.
##  4 BLACK HAWK            686.      7908. 13222.
##  5 JOHNSON               544.      7779. 12624.
##  6 WOODBURY              430.      5274.  8713.
##  7 POTTAWATTA            390.      5160.  8370.
##  8 STORY                 249.      3638.  6136.
##  9 CERRO GORD            239.      3133.  5991.
## 10 DUBUQUE               239.      3216.  5430.
## # … with 20 more rows
…
